%YAML 1.1
%TAG !u! tag:unity3d.com,2011:
--- !u!74 &7400000
AnimationClip:
  m_ObjectHideFlags: 0
  m_CorrespondingSourceObject: {fileID: 0}
  m_PrefabInternal: {fileID: 0}
  m_Name: pPlane2D_Unity2D
  serializedVersion: 6
  m_Legacy: 0
  m_Compressed: 0
  m_UseHighQualityCurve: 1
  m_RotationCurves: []
  m_CompressedRotationCurves: []
  m_EulerCurves: []
  m_PositionCurves: []
  m_ScaleCurves: []
  m_FloatCurves: []
  m_PPtrCurves:
  - curve:
    - time: 0
      value: {fileID: 21300066, guid: 480ad21d8c57663418ab832a43c00da9, type: 3}
    - time: 0.05
      value: {fileID: 21300068, guid: 480ad21d8c57663418ab832a43c00da9, type: 3}
    - time: 0.1
      value: {fileID: 21300070, guid: 480ad21d8c57663418ab832a43c00da9, type: 3}
    - time: 0.15
      value: {fileID: 21300072, guid: 480ad21d8c57663418ab832a43c00da9, type: 3}
    - time: 0.2
      value: {fileID: 21300074, guid: 480ad21d8c57663418ab832a43c00da9, type: 3}
    - time: 0.25
      value: {fileID: 21300076, guid: 480ad21d8c57663418ab832a43c00da9, type: 3}
    - time: 0.3
      value: {fileID: 21300078, guid: 480ad21d8c57663418ab832a43c00da9, type: 3}
    - time: 0.35
      value: {fileID: 21300080, guid: 480ad21d8c57663418ab832a43c00da9, type: 3}
    - time: 0.4
      value: {fileID: 21300082, guid: 480ad21d8c57663418ab832a43c00da9, type: 3}
    - time: 0.45
      value: {fileID: 21300084, guid: 480ad21d8c57663418ab832a43c00da9, type: 3}
    - time: 0.5
      value: {fileID: 21300086, guid: 480ad21d8c57663418ab832a43c00da9, type: 3}
    - time: 0.55
      value: {fileID: 21300088, guid: 480ad21d8c57663418ab832a43c00da9, type: 3}
    - time: 0.6
      value: {fileID: 21300090, guid: 480ad21d8c57663418ab832a43c00da9, type: 3}
    - time: 0.65
      value: {fileID: 21300092, guid: 480ad21d8c57663418ab832a43c00da9, type: 3}
    - time: 0.7
      value: {fileID: 21300094, guid: 480ad21d8c57663418ab832a43c00da9, type: 3}
    attribute: m_Sprite
    path: 
    classID: 212
    script: {fileID: 0}
  m_SampleRate: 20
  m_WrapMode: 0
  m_Bounds:
    m_Center: {x: 0, y: 0, z: 0}
    m_Extent: {x: 0, y: 0, z: 0}
  m_ClipBindingConstant:
    genericBindings:
    - serializedVersion: 2
      path: 0
      attribute: 0
      script: {fileID: 0}
      typeID: 212
      customType: 23
      isPPtrCurve: 1
    pptrCurveMapping:
    - {fileID: 21300066, guid: 480ad21d8c57663418ab832a43c00da9, type: 3}
    - {fileID: 21300068, guid: 480ad21d8c57663418ab832a43c00da9, type: 3}
    - {fileID: 21300070, guid: 480ad21d8c57663418ab832a43c00da9, type: 3}
    - {fileID: 21300072, guid: 480ad21d8c57663418ab832a43c00da9, type: 3}
    - {fileID: 21300074, guid: 480ad21d8c57663418ab832a43c00da9, type: 3}
    - {fileID: 21300076, guid: 480ad21d8c57663418ab832a43c00da9, type: 3}
    - {fileID: 21300078, guid: 480ad21d8c57663418ab832a43c00da9, type: 3}
    - {fileID: 21300080, guid: 480ad21d8c57663418ab832a43c00da9, type: 3}
    - {fileID: 21300082, guid: 480ad21d8c57663418ab832a43c00da9, type: 3}
    - {fileID: 21300084, guid: 480ad21d8c57663418ab832a43c00da9, type: 3}
    - {fileID: 21300086, guid: 480ad21d8c57663418ab832a43c00da9, type: 3}
    - {fileID: 21300088, guid: 480ad21d8c57663418ab832a43c00da9, type: 3}
    - {fileID: 21300090, guid: 480ad21d8c57663418ab832a43c00da9, type: 3}
    - {fileID: 21300092, guid: 480ad21d8c57663418ab832a43c00da9, type: 3}
    - {fileID: 21300094, guid: 480ad21d8c57663418ab832a43c00da9, type: 3}
  m_AnimationClipSettings:
    serializedVersion: 2
    m_AdditiveReferencePoseClip: {fileID: 0}
    m_AdditiveReferencePoseTime: 0
    m_StartTime: 0
    m_StopTime: 0.75
    m_OrientationOffsetY: 0
    m_Level: 0
    m_CycleOffset: 0
    m_HasAdditiveReferencePose: 0
    m_LoopTime: 1
    m_LoopBlend: 0
    m_LoopBlendOrientation: 0
    m_LoopBlendPositionY: 0
    m_LoopBlendPositionXZ: 0
    m_KeepOriginalOrientation: 0
    m_KeepOriginalPositionY: 1
    m_KeepOriginalPositionXZ: 0
    m_HeightFromFeet: 0
    m_Mirror: 0
  m_EditorCurves: []
  m_EulerEditorCurves: []
  m_HasGenericRootTransform: 0
  m_HasMotionFloatCurves: 0
  m_GenerateMotionCurves: 0
  m_Events: []
